01_game_of_life/conway_cell.vcd
$date
	Mon Oct  4 18:37:34 2021
$end
$version
	Icarus Verilog
$end
$timescale
	1ps
$end
$scope module test_conway_cell $end
$scope module UUT $end
$var wire 1 ! clk $end
$var wire 1 " ena $end
$var wire 8 # neighbors [7:0] $end
$var wire 1 $ rst $end
$var wire 1 % state_0 $end
$var wire 4 & live [3:0] $end
$var reg 1 ' next_state $end
$var reg 1 ( state_d $end
$var reg 1 ) state_q $end
$scope module COUNT $end
$var wire 8 * in [7:0] $end
$var wire 4 + out [3:0] $end
$var wire 6 , half_out [5:0] $end
$scope module A $end
$var wire 4 - in [3:0] $end
$var wire 3 . out [2:0] $end
$var wire 4 / half_out [3:0] $end
$scope module A $end
$var wire 1 0 a $end
$var wire 1 1 b $end
$var reg 1 2 c $end
$var reg 1 3 y $end
$upscope $end
$scope module B $end
$var wire 1 4 a $end
$var wire 1 5 b $end
$var reg 1 6 c $end
$var reg 1 7 y $end
$upscope $end
$scope module C $end
$var wire 2 8 a [1:0] $end
$var wire 2 9 b [1:0] $end
$var wire 2 : y [1:0] $end
$var wire 1 ; c_in $end
$var wire 1 < c $end
$scope module full $end
$var wire 1 = a $end
$var wire 1 > b $end
$var wire 1 ; c_in $end
$var reg 1 < c $end
$var reg 1 ? y $end
$upscope $end
$scope module half $end
$var wire 1 @ a $end
$var wire 1 A b $end
$var reg 1 ; c $end
$var reg 1 B y $end
$upscope $end
$upscope $end
$upscope $end
$scope module B $end
$var wire 4 C in [3:0] $end
$var wire 3 D out [2:0] $end
$var wire 4 E half_out [3:0] $end
$scope module A $end
$var wire 1 F a $end
$var wire 1 G b $end
$var reg 1 H c $end
$var reg 1 I y $end
$upscope $end
$scope module B $end
$var wire 1 J a $end
$var wire 1 K b $end
$var reg 1 L c $end
$var reg 1 M y $end
$upscope $end
$scope module C $end
$var wire 2 N a [1:0] $end
$var wire 2 O b [1:0] $end
$var wire 2 P y [1:0] $end
$var wire 1 Q c_in $end
$var wire 1 R c $end
$scope module full $end
$var wire 1 S a $end
$var wire 1 T b $end
$var wire 1 Q c_in $end
$var reg 1 R c $end
$var reg 1 U y $end
$upscope $end
$scope module half $end
$var wire 1 V a $end
$var wire 1 W b $end
$var reg 1 Q c $end
$var reg 1 X y $end
$upscope $end
$upscope $end
$upscope $end
$scope module C $end
$var wire 3 Y a [2:0] $end
$var wire 3 Z b [2:0] $end
$var wire 3 [ y [2:0] $end
$var wire 1 \ c_in $end
$var wire 1 ] c $end
$scope module full $end
$var wire 1 ^ a $end
$var wire 1 _ b $end
$var wire 1 \ c_in $end
$var reg 1 ] c $end
$var reg 1 ` y $end
$upscope $end
$scope module two $end
$var wire 2 a a [1:0] $end
$var wire 2 b b [1:0] $end
$var wire 2 c y [1:0] $end
$var wire 1 d c_in $end
$var wire 1 \ c $end
$scope module full $end
$var wire 1 e a $end
$var wire 1 f b $end
$var wire 1 d c_in $end
$var reg 1 \ c $end
$var reg 1 g y $end
$upscope $end
$scope module half $end
$var wire 1 h a $end
$var wire 1 i b $end
$var reg 1 d c $end
$var reg 1 j y $end
$upscope $end
$upscope $end
$upscope $end
$upscope $end
$scope begin D_flip_flop $end
$upscope $end
$scope begin input_logic $end
$upscope $end
$upscope $end
$upscope $end
$enddefinitions $end
#0
$dumpvars
xj
xi
xh
xg
xf
xe
xd
bx c
bx b
bx a
x`
x_
x^
x]
x\
bx [
bx Z
bx Y
xX
xW
xV
xU
xT
xS
xR
xQ
bx P
bx O
bx N
xM
xL
xK
xJ
xI
xH
xG
xF
bx E
bx D
bx C
xB
xA
x@
x?
x>
x=
x<
x;
bx :
bx 9
bx 8
x7
x6
x5
x4
x3
x2
x1
x0
bx /
bx .
bx -
bx ,
bx +
bx *
x)
0(
x'
bx &
0%
1$
bx #
1"
0!
$end
#5000
0)
1!
#10000
0!
#15000
x(
0$
1!
#20000
0`
0\
0g
0(
0'
0e
0f
0d
b0 [
b0 c
0j
0h
0i
b0 &
b0 +
0]
b0 a
0^
b0 b
0_
0?
b0 Y
0U
b0 Z
0;
b0 :
0B
b0 .
0<
0Q
b0 P
0X
b0 ,
b0 D
0R
0@
0=
0A
0>
0V
0S
0W
0T
b0 8
b0 9
b0 N
b0 O
02
03
06
b0 /
07
0H
0I
0L
b0 E
0M
00
01
04
05
0F
0G
0J
0K
b0 -
b0 C
b0 #
b0 *
0!
#25000
1!
#30000
b1 &
b1 +
b1 [
b1 c
1j
1h
b1 a
b1 Y
b1 ,
b1 .
b1 :
1B
1@
b1 8
b1 /
13
10
b1 -
b1 #
b1 *
0!
#35000
1!
#40000
00
11
b10 -
b10 #
b10 *
0!
#45000
1!
#50000
0j
b10 &
b10 +
b10 [
b10 c
1g
0h
1e
b10 a
b10 Y
0B
b10 ,
b10 .
b10 :
1?
0@
1=
b10 8
12
b10 /
03
10
b11 -
b11 #
b11 *
0!
#55000
1!
#60000
1j
b1 &
b1 +
b1 [
b1 c
0g
1h
0e
b1 a
b1 Y
0?
b1 ,
b1 .
b1 :
1B
0=
1A
b0 8
b1 9
02
b100 /
17
00
01
14
b100 -
b100 #
b100 *
0!
#65000
1!
#70000
1g
1e
b10 &
b10 +
b10 [
b10 c
0j
0h
b10 a
1?
b10 Y
1;
b10 ,
b10 .
b10 :
0B
1@
b1 8
b101 /
13
10
b101 -
b101 #
b101 *
0!
#75000
1!
#80000
00
11
b110 -
b110 #
b110 *
0!
#85000
1!
#90000
1(
1'
1j
b11 c
1g
1h
1e
b11 &
b11 +
b11 [
0`
b11 a
0^
b11 Y
0;
1B
0<
b11 ,
b11 .
b11 :
1?
0@
1=
b10 8
12
b110 /
03
10
b111 -
b111 #
b111 *
0!
#95000
1)
1!
#100000
0(
0'
b1 &
b1 +
b1 [
b1 c
0g
0e
b1 a
b1 Y
b1 ,
b1 .
b1 :
0?
0=
b0 8
b100 /
02
00
01
04
15
b1000 -
b1000 #
b1000 *
0!
#105000
0)
1!
#110000
1g
1e
b10 &
b10 +
b10 [
b10 c
0j
0h
b10 a
1?
b10 Y
1;
b10 ,
b10 .
b10 :
0B
1@
b1 8
b101 /
13
10
b1001 -
b1001 #
b1001 *
0!
#115000
1!
#120000
00
11
b1010 -
b1010 #
b1010 *
0!
#125000
1!
#130000
1(
1'
1j
b11 c
1g
1h
1e
b11 &
b11 +
b11 [
0`
b11 a
0^
b11 Y
0;
1B
0<
b11 ,
b11 .
b11 :
1?
0@
1=
b10 8
12
b110 /
03
10
b1011 -
b1011 #
b1011 *
0!
#135000
1)
1!
#140000
0(
0'
b10 &
b10 +
b10 [
b10 c
0j
0h
b10 a
b10 Y
b10 ,
b10 .
b10 :
0B
0=
0A
1>
b0 8
b10 9
02
16
b1000 /
07
00
01
14
b1100 -
b1100 #
b1100 *
0!
#145000
0)
1!
#150000
1(
1'
b11 &
b11 +
b11 [
b11 c
1j
1h
b11 a
b11 Y
b11 ,
b11 .
b11 :
1B
1@
b1 8
b1001 /
13
10
b1101 -
b1101 #
b1101 *
0!
#155000
1)
1!
#160000
00
11
b1110 -
b1110 #
b1110 *
0!
#165000
1!
#170000
0j
b0 c
0g
0(
0'
0h
0e
b100 &
b100 +
b100 [
1`
b0 a
1^
b100 Y
0B
1<
b100 ,
b100 .
b0 :
0?
0@
1=
b10 8
12
b1010 /
03
10
b1111 -
b1111 #
b1111 *
0!
#175000
0)
1!
#180000
b1 c
1j
b1 &
b1 +
b1 [
0`
1i
0^
b1 b
b0 Y
b1 Z
b0 .
0<
b1000 ,
b1 D
b1 P
1X
0=
0>
1V
b0 8
b0 9
b1 N
02
b0 /
06
b1 E
1I
00
01
04
05
1F
b0 -
b1 C
b10000 #
b10000 *
0!
#185000
1!
#190000
1g
1d
b10 &
b10 +
b10 [
b10 c
0j
1h
b1 a
b1 Y
b1001 ,
b1 .
b1 :
1B
1@
b1 8
b1 /
13
10
b1 -
b10001 #
b10001 *
0!
#195000
1!
#200000
00
11
b10 -
b10010 #
b10010 *
0!
#205000
1!
#210000
1(
1'
0`
0d
1j
0\
b11 &
b11 +
b11 [
b11 c
1g
0h
1e
b10 a
b10 Y
0B
b1010 ,
b10 .
b10 :
1?
0@
1=
b10 8
12
b10 /
03
10
b11 -
b10011 #
b10011 *
0!
#215000
1)
1!
#220000
0(
0'
1d
0j
b10 &
b10 +
b10 [
b10 c
1g
1h
0e
b1 a
b1 Y
0?
b1001 ,
b1 .
b1 :
1B
0=
1A
b0 8
b1 9
02
b100 /
17
00
01
14
b100 -
b10100 #
b10100 *
0!
#225000
0)
1!
#230000
1(
1'
1e
0d
b11 &
b11 +
b11 [
b11 c
1j
0h
b10 a
1?
b10 Y
1;
b1010 ,
b10 .
b10 :
0B
1@
b1 8
b101 /
13
10
b101 -
b10101 #
b10101 *
0!
#235000
1)
1!
#240000
00
11
b110 -
b10110 #
b10110 *
0!
#245000
1!
#250000
1\
1d
0j
b0 c
0g
0(
0'
1h
1e
b100 &
b100 +
b100 [
1`
b11 a
0^
b11 Y
0;
1B
0<
b1011 ,
b11 .
b11 :
1?
0@
1=
b10 8
12
b110 /
03
10
b111 -
b10111 #
b10111 *
0!
#255000
0)
1!
#260000
0`
0\
b10 &
b10 +
b10 [
b10 c
1g
0e
b1 a
b1 Y
b1001 ,
b1 .
b1 :
0?
0=
b0 8
b100 /
02
00
01
04
15
b1000 -
b11000 #
b11000 *
0!
#265000
1!
#270000
1(
1'
1e
0d
b11 &
b11 +
b11 [
b11 c
1j
0h
b10 a
1?
b10 Y
1;
b1010 ,
b10 .
b10 :
0B
1@
b1 8
b101 /
13
10
b1001 -
b11001 #
b11001 *
0!
#275000
1)
1!
#280000
00
11
b1010 -
b11010 #
b11010 *
0!
#285000
1!
#290000
1\
1d
0j
b0 c
0g
0(
0'
1h
1e
b100 &
b100 +
b100 [
1`
b11 a
0^
b11 Y
0;
1B
0<
b1011 ,
b11 .
b11 :
1?
0@
1=
b10 8
12
b110 /
03
10
b1011 -
b11011 #
b11011 *
0!
#295000
0)
1!
#300000
1(
1'
0`
0\
1g
0d
b11 &
b11 +
b11 [
b11 c
1j
0h
b10 a
b10 Y
b1010 ,
b10 .
b10 :
0B
0=
0A
1>
b0 8
b10 9
02
16
b1000 /
07
00
01
14
b1100 -
b11100 #
b11100 *
0!
#305000
1)
1!
#310000
1`
1\
0g
0(
0'
1d
b100 &
b100 +
b100 [
b0 c
0j
1h
b11 a
b11 Y
b1011 ,
b11 .
b11 :
1B
1@
b1 8
b1001 /
13
10
b1101 -
b11101 #
b11101 *
0!
#315000
0)
1!
#320000
00
11
b1110 -
b11110 #
b11110 *
0!
#325000
1!
#330000
0d
1j
0\
b1 c
0g
0h
0e
0]
b101 &
b101 +
b101 [
1`
b0 a
1^
b100 Y
0B
1<
b1100 ,
b100 .
b0 :
0?
0@
1=
b10 8
12
b1010 /
03
10
b1111 -
b11111 #
b11111 *
0!
#335000
1!
#340000
b1 &
b1 +
b1 [
0`
0^
b0 Y
b1000 ,
b0 .
0<
0=
0>
b0 8
b0 9
02
b0 /
06
00
01
04
05
0F
1G
b0 -
b10 C
b100000 #
b100000 *
0!
#345000
1!
#350000
1g
1d
b10 &
b10 +
b10 [
b10 c
0j
1h
b1 a
b1 Y
b1001 ,
b1 .
b1 :
1B
1@
b1 8
b1 /
13
10
b1 -
b100001 #
b100001 *
0!
#355000
1!
#360000
00
11
b10 -
b100010 #
b100010 *
0!
#365000
1!
#370000
1(
1'
0`
0d
1j
0\
b11 &
b11 +
b11 [
b11 c
1g
0h
1e
b10 a
b10 Y
0B
b1010 ,
b10 .
b10 :
1?
0@
1=
b10 8
12
b10 /
03
10
b11 -
b100011 #
b100011 *
0!
#375000
1)
1!
#380000
0(
0'
1d
0j
b10 &
b10 +
b10 [
b10 c
1g
1h
0e
b1 a
b1 Y
0?
b1001 ,
b1 .
b1 :
1B
0=
1A
b0 8
b1 9
02
b100 /
17
00
01
14
b100 -
b100100 #
b100100 *
0!
#385000
0)
1!
#390000
1(
1'
1e
0d
b11 &
b11 +
b11 [
b11 c
1j
0h
b10 a
1?
b10 Y
1;
b1010 ,
b10 .
b10 :
0B
1@
b1 8
b101 /
13
10
b101 -
b100101 #
b100101 *
0!
#395000
1)
1!
#400000
00
11
b110 -
b100110 #
b100110 *
0!
#405000
1!
#410000
1\
1d
0j
b0 c
0g
0(
0'
1h
1e
b100 &
b100 +
b100 [
1`
b11 a
0^
b11 Y
0;
1B
0<
b1011 ,
b11 .
b11 :
1?
0@
1=
b10 8
12
b110 /
03
10
b111 -
b100111 #
b100111 *
0!
#415000
0)
1!
#420000
0`
0\
b10 &
b10 +
b10 [
b10 c
1g
0e
b1 a
b1 Y
b1001 ,
b1 .
b1 :
0?
0=
b0 8
b100 /
02
00
01
04
15
b1000 -
b101000 #
b101000 *
0!
#425000
1!
#430000
1(
1'
1e
0d
b11 &
b11 +
b11 [
b11 c
1j
0h
b10 a
1?
b10 Y
1;
b1010 ,
b10 .
b10 :
0B
1@
b1 8
b101 /
13
10
b1001 -
b101001 #
b101001 *
0!
#435000
1)
1!
#440000
00
11
b1010 -
b101010 #
b101010 *
0!
#445000
1!
#450000
1\
1d
0j
b0 c
0g
0(
0'
1h
1e
b100 &
b100 +
b100 [
1`
b11 a
0^
b11 Y
0;
1B
0<
b1011 ,
b11 .
b11 :
1?
0@
1=
b10 8
12
b110 /
03
10
b1011 -
b101011 #
b101011 *
0!
#455000
0)
1!
#460000
1(
1'
0`
0\
1g
0d
b11 &
b11 +
b11 [
b11 c
1j
0h
b10 a
b10 Y
b1010 ,
b10 .
b10 :
0B
0=
0A
1>
b0 8
b10 9
02
16
b1000 /
07
00
01
14
b1100 -
b101100 #
b101100 *
0!
#465000
1)
1!
#470000
1`
1\
0g
0(
0'
1d
b100 &
b100 +
b100 [
b0 c
0j
1h
b11 a
b11 Y
b1011 ,
b11 .
b11 :
1B
1@
b1 8
b1001 /
13
10
b1101 -
b101101 #
b101101 *
0!
#475000
0)
1!
#480000
00
11
b1110 -
b101110 #
b101110 *
0!
#485000
1!
#490000
0d
1j
0\
b1 c
0g
0h
0e
0]
b101 &
b101 +
b101 [
1`
b0 a
1^
b100 Y
0B
1<
b1100 ,
b100 .
b0 :
0?
0@
1=
b10 8
12
b1010 /
03
10
b1111 -
b101111 #
b101111 *
0!
#495000
1!
#500000
0j
b10 c
1g
b10 &
b10 +
b10 [
0`
0i
1f
0^
b10 b
b0 Y
b10 Z
b0 .
0<
0X
b10000 ,
b10 D
b10 P
1U
0=
0>
0V
1S
b0 8
b0 9
b10 N
02
b0 /
06
1H
b10 E
0I
00
01
04
05
1F
b0 -
b11 C
b110000 #
b110000 *
0!
#505000
1!
#510000
1(
1'
b11 &
b11 +
b11 [
b11 c
1j
1h
b1 a
b1 Y
b10001 ,
b1 .
b1 :
1B
1@
b1 8
b1 /
13
10
b1 -
b110001 #
b110001 *
0!
#515000
1)
1!
#520000
00
11
b10 -
b110010 #
b110010 *
0!
#525000
1!
#530000
1`
0(
0'
0j
1\
b100 &
b100 +
b100 [
b0 c
0g
0h
1e
b10 a
b10 Y
0B
b10010 ,
b10 .
b10 :
1?
0@
1=
b10 8
12
b10 /
03
10
b11 -
b110011 #
b110011 *
0!
#535000
0)
1!
#540000
1(
1'
0`
1j
0\
b11 &
b11 +
b11 [
b11 c
1g
1h
0e
b1 a
b1 Y
0?
b10001 ,
b1 .
b1 :
1B
0=
1A
b0 8
b1 9
02
b100 /
17
00
01
14
b100 -
b110100 #
b110100 *
0!
#545000
1)
1!
#550000
1`
1\
0g
0(
0'
1e
b100 &
b100 +
b100 [
b0 c
0j
0h
b10 a
1?
b10 Y
1;
b10010 ,
b10 .
b10 :
0B
1@
b1 8
b101 /
13
10
b101 -
b110101 #
b110101 *
0!
#555000
0)
1!
#560000
00
11
b110 -
b110110 #
b110110 *
0!
#565000
1!
#570000
0(
0'
1j
1\
b1 c
0g
1h
1e
0]
b101 &
b101 +
b101 [
1`
b11 a
0^
b11 Y
0;
1B
0<
b10011 ,
b11 .
b11 :
1?
0@
1=
b10 8
12
b110 /
03
10
b111 -
b110111 #
b110111 *
0!
#575000
1!
#580000
1(
1'
0`
0\
b11 &
b11 +
b11 [
b11 c
1g
0e
b1 a
b1 Y
b10001 ,
b1 .
b1 :
0?
0=
b0 8
b100 /
02
00
01
04
15
b1000 -
b111000 #
b111000 *
0!
#585000
1)
1!
#590000
1`
1\
0g
0(
0'
1e
b100 &
b100 +
b100 [
b0 c
0j
0h
b10 a
1?
b10 Y
1;
b10010 ,
b10 .
b10 :
0B
1@
b1 8
b101 /
13
10
b1001 -
b111001 #
b111001 *
0!
#595000
0)
1!
#600000
00
11
b1010 -
b111010 #
b111010 *
0!
#605000
1!
#610000
0(
0'
1j
1\
b1 c
0g
1h
1e
0]
b101 &
b101 +
b101 [
1`
b11 a
0^
b11 Y
0;
1B
0<
b10011 ,
b11 .
b11 :
1?
0@
1=
b10 8
12
b110 /
03
10
b1011 -
b111011 #
b111011 *
0!
#615000
1!
#620000
b100 &
b100 +
b100 [
b0 c
0j
0h
b10 a
b10 Y
b10010 ,
b10 .
b10 :
0B
0=
0A
1>
b0 8
b10 9
02
16
b1000 /
07
00
01
14
b1100 -
b111100 #
b111100 *
0!
#625000
1!
#630000
b101 &
b101 +
b101 [
b1 c
1j
1h
b11 a
b11 Y
b10011 ,
b11 .
b11 :
1B
1@
b1 8
b1001 /
13
10
b1101 -
b111101 #
b111101 *
0!
#635000
1!
#640000
00
11
b1110 -
b111110 #
b111110 *
0!
#645000
1!
#650000
0j
0\
b10 c
1g
0h
0e
0]
b110 &
b110 +
b110 [
1`
b0 a
1^
b100 Y
0B
1<
b10100 ,
b100 .
b0 :
0?
0@
1=
b10 8
12
b1010 /
03
10
b1111 -
b111111 #
b111111 *
0!
#655000
1!
#660000
1j
b1 c
0g
b1 &
b1 +
b1 [
0`
1i
0f
0^
b1 b
b0 Y
b1 Z
b0 .
0<
0U
b1000 ,
b1 D
b1 P
1X
0=
0>
0S
1W
b0 8
b0 9
b0 N
b1 O
02
b0 /
06
0H
b100 E
1M
00
01
04
05
0F
0G
1J
b0 -
b100 C
b1000000 #
b1000000 *
0!
#665000
1!
#670000
1g
1d
b10 &
b10 +
b10 [
b10 c
0j
1h
b1 a
b1 Y
b1001 ,
b1 .
b1 :
1B
1@
b1 8
b1 /
13
10
b1 -
b1000001 #
b1000001 *
0!
#675000
1!
#680000
00
11
b10 -
b1000010 #
b1000010 *
0!
#685000
1!
#690000
1(
1'
0`
0d
1j
0\
b11 &
b11 +
b11 [
b11 c
1g
0h
1e
b10 a
b10 Y
0B
b1010 ,
b10 .
b10 :
1?
0@
1=
b10 8
12
b10 /
03
10
b11 -
b1000011 #
b1000011 *
0!
#695000
1)
1!
#700000
0(
0'
1d
0j
b10 &
b10 +
b10 [
b10 c
1g
1h
0e
b1 a
b1 Y
0?
b1001 ,
b1 .
b1 :
1B
0=
1A
b0 8
b1 9
02
b100 /
17
00
01
14
b100 -
b1000100 #
b1000100 *
0!
#705000
0)
1!
#710000
1(
1'
1e
0d
b11 &
b11 +
b11 [
b11 c
1j
0h
b10 a
1?
b10 Y
1;
b1010 ,
b10 .
b10 :
0B
1@
b1 8
b101 /
13
10
b101 -
b1000101 #
b1000101 *
0!
#715000
1)
1!
#720000
00
11
b110 -
b1000110 #
b1000110 *
0!
#725000
1!
#730000
1\
1d
0j
b0 c
0g
0(
0'
1h
1e
b100 &
b100 +
b100 [
1`
b11 a
0^
b11 Y
0;
1B
0<
b1011 ,
b11 .
b11 :
1?
0@
1=
b10 8
12
b110 /
03
10
b111 -
b1000111 #
b1000111 *
0!
#735000
0)
1!
#740000
0`
0\
b10 &
b10 +
b10 [
b10 c
1g
0e
b1 a
b1 Y
b1001 ,
b1 .
b1 :
0?
0=
b0 8
b100 /
02
00
01
04
15
b1000 -
b1001000 #
b1001000 *
0!
#745000
1!
#750000
1(
1'
1e
0d
b11 &
b11 +
b11 [
b11 c
1j
0h
b10 a
1?
b10 Y
1;
b1010 ,
b10 .
b10 :
0B
1@
b1 8
b101 /
13
10
b1001 -
b1001001 #
b1001001 *
0!
#755000
1)
1!
#760000
00
11
b1010 -
b1001010 #
b1001010 *
0!
#765000
1!
#770000
1\
1d
0j
b0 c
0g
0(
0'
1h
1e
b100 &
b100 +
b100 [
1`
b11 a
0^
b11 Y
0;
1B
0<
b1011 ,
b11 .
b11 :
1?
0@
1=
b10 8
12
b110 /
03
10
b1011 -
b1001011 #
b1001011 *
0!
#775000
0)
1!
#780000
1(
1'
0`
0\
1g
0d
b11 &
b11 +
b11 [
b11 c
1j
0h
b10 a
b10 Y
b1010 ,
b10 .
b10 :
0B
0=
0A
1>
b0 8
b10 9
02
16
b1000 /
07
00
01
14
b1100 -
b1001100 #
b1001100 *
0!
#785000
1)
1!
#790000
1`
1\
0g
0(
0'
1d
b100 &
b100 +
b100 [
b0 c
0j
1h
b11 a
b11 Y
b1011 ,
b11 .
b11 :
1B
1@
b1 8
b1001 /
13
10
b1101 -
b1001101 #
b1001101 *
0!
#795000
0)
1!
#800000
00
11
b1110 -
b1001110 #
b1001110 *
0!
#805000
1!
#810000
0d
1j
0\
b1 c
0g
0h
0e
0]
b101 &
b101 +
b101 [
1`
b0 a
1^
b100 Y
0B
1<
b1100 ,
b100 .
b0 :
0?
0@
1=
b10 8
12
b1010 /
03
10
b1111 -
b1001111 #
b1001111 *
0!
#815000
1!
#820000
1g
1f
b10 c
0j
b10 &
b10 +
b10 [
0`
0i
0^
b10 b
b0 Y
1U
b10 Z
b0 .
0<
1Q
b10000 ,
b10 D
b10 P
0X
0=
0>
1V
b0 8
b0 9
b1 N
02
b0 /
06
b101 E
1I
00
01
04
05
1F
b0 -
b101 C
b1010000 #
b1010000 *
0!
#825000
1!
#830000
1(
1'
b11 &
b11 +
b11 [
b11 c
1j
1h
b1 a
b1 Y
b10001 ,
b1 .
b1 :
1B
1@
b1 8
b1 /
13
10
b1 -
b1010001 #
b1010001 *
0!
#835000
1)
1!
#840000
00
11
b10 -
b1010010 #
b1010010 *
0!
#845000
1!
#850000
1`
0(
0'
0j
1\
b100 &
b100 +
b100 [
b0 c
0g
0h
1e
b10 a
b10 Y
0B
b10010 ,
b10 .
b10 :
1?
0@
1=
b10 8
12
b10 /
03
10
b11 -
b1010011 #
b1010011 *
0!
#855000
0)
1!
#860000
1(
1'
0`
1j
0\
b11 &
b11 +
b11 [
b11 c
1g
1h
0e
b1 a
b1 Y
0?
b10001 ,
b1 .
b1 :
1B
0=
1A
b0 8
b1 9
02
b100 /
17
00
01
14
b100 -
b1010100 #
b1010100 *
0!
#865000
1)
1!
#870000
1`
1\
0g
0(
0'
1e
b100 &
b100 +
b100 [
b0 c
0j
0h
b10 a
1?
b10 Y
1;
b10010 ,
b10 .
b10 :
0B
1@
b1 8
b101 /
13
10
b101 -
b1010101 #
b1010101 *
0!
#875000
0)
1!
#880000
00
11
b110 -
b1010110 #
b1010110 *
0!
#885000
1!
#890000
0(
0'
1j
1\
b1 c
0g
1h
1e
0]
b101 &
b101 +
b101 [
1`
b11 a
0^
b11 Y
0;
1B
0<
b10011 ,
b11 .
b11 :
1?
0@
1=
b10 8
12
b110 /
03
10
b111 -
b1010111 #
b1010111 *
0!
#895000
1!
#900000
1(
1'
0`
0\
b11 &
b11 +
b11 [
b11 c
1g
0e
b1 a
b1 Y
b10001 ,
b1 .
b1 :
0?
0=
b0 8
b100 /
02
00
01
04
15
b1000 -
b1011000 #
b1011000 *
0!
#905000
1)
1!
#910000
1`
1\
0g
0(
0'
1e
b100 &
b100 +
b100 [
b0 c
0j
0h
b10 a
1?
b10 Y
1;
b10010 ,
b10 .
b10 :
0B
1@
b1 8
b101 /
13
10
b1001 -
b1011001 #
b1011001 *
0!
#915000
0)
1!
#920000
00
11
b1010 -
b1011010 #
b1011010 *
0!
#925000
1!
#930000
0(
0'
1j
1\
b1 c
0g
1h
1e
0]
b101 &
b101 +
b101 [
1`
b11 a
0^
b11 Y
0;
1B
0<
b10011 ,
b11 .
b11 :
1?
0@
1=
b10 8
12
b110 /
03
10
b1011 -
b1011011 #
b1011011 *
0!
#935000
1!
#940000
b100 &
b100 +
b100 [
b0 c
0j
0h
b10 a
b10 Y
b10010 ,
b10 .
b10 :
0B
0=
0A
1>
b0 8
b10 9
02
16
b1000 /
07
00
01
14
b1100 -
b1011100 #
b1011100 *
0!
#945000
1!
#950000
b101 &
b101 +
b101 [
b1 c
1j
1h
b11 a
b11 Y
b10011 ,
b11 .
b11 :
1B
1@
b1 8
b1001 /
13
10
b1101 -
b1011101 #
b1011101 *
0!
#955000
1!
#960000
00
11
b1110 -
b1011110 #
b1011110 *
0!
#965000
1!
#970000
0j
0\
b10 c
1g
0h
0e
0]
b110 &
b110 +
b110 [
1`
b0 a
1^
b100 Y
0B
1<
b10100 ,
b100 .
b0 :
0?
0@
1=
b10 8
12
b1010 /
03
10
b1111 -
b1011111 #
b1011111 *
0!
#975000
1!
#980000
b10 &
b10 +
b10 [
0`
0^
b0 Y
b10000 ,
b0 .
0<
0=
0>
b0 8
b0 9
02
b0 /
06
00
01
04
05
0F
1G
b0 -
b110 C
b1100000 #
b1100000 *
0!
#985000
1!
#990000
1(
1'
b11 &
b11 +
b11 [
b11 c
1j
1h
b1 a
b1 Y
b10001 ,
b1 .
b1 :
1B
1@
b1 8
b1 /
13
10
b1 -
b1100001 #
b1100001 *
0!
#995000
1)
1!
#1000000
00
11
b10 -
b1100010 #
b1100010 *
0!
#1005000
1!
#1010000
1`
0(
0'
0j
1\
b100 &
b100 +
b100 [
b0 c
0g
0h
1e
b10 a
b10 Y
0B
b10010 ,
b10 .
b10 :
1?
0@
1=
b10 8
12
b10 /
03
10
b11 -
b1100011 #
b1100011 *
0!
#1015000
0)
1!
#1020000
1(
1'
0`
1j
0\
b11 &
b11 +
b11 [
b11 c
1g
1h
0e
b1 a
b1 Y
0?
b10001 ,
b1 .
b1 :
1B
0=
1A
b0 8
b1 9
02
b100 /
17
00
01
14
b100 -
b1100100 #
b1100100 *
0!
#1025000
1)
1!
#1030000
1`
1\
0g
0(
0'
1e
b100 &
b100 +
b100 [
b0 c
0j
0h
b10 a
1?
b10 Y
1;
b10010 ,
b10 .
b10 :
0B
1@
b1 8
b101 /
13
10
b101 -
b1100101 #
b1100101 *
0!
#1035000
0)
1!
#1040000
00
11
b110 -
b1100110 #
b1100110 *
0!
#1045000
1!
#1050000
0(
0'
1j
1\
b1 c
0g
1h
1e
0]
b101 &
b101 +
b101 [
1`
b11 a
0^
b11 Y
0;
1B
0<
b10011 ,
b11 .
b11 :
1?
0@
1=
b10 8
12
b110 /
03
10
b111 -
b1100111 #
b1100111 *
0!
#1055000
1!
#1060000
1(
1'
0`
0\
b11 &
b11 +
b11 [
b11 c
1g
0e
b1 a
b1 Y
b10001 ,
b1 .
b1 :
0?
0=
b0 8
b100 /
02
00
01
04
15
b1000 -
b1101000 #
b1101000 *
0!
#1065000
1)
1!
#1070000
1`
1\
0g
0(
0'
1e
b100 &
b100 +
b100 [
b0 c
0j
0h
b10 a
1?
b10 Y
1;
b10010 ,
b10 .
b10 :
0B
1@
b1 8
b101 /
13
10
b1001 -
b1101001 #
b1101001 *
0!
#1075000
0)
1!
#1080000
00
11
b1010 -
b1101010 #
b1101010 *
0!
#1085000
1!
#1090000
0(
0'
1j
1\
b1 c
0g
1h
1e
0]
b101 &
b101 +
b101 [
1`
b11 a
0^
b11 Y
0;
1B
0<
b10011 ,
b11 .
b11 :
1?
0@
1=
b10 8
12
b110 /
03
10
b1011 -
b1101011 #
b1101011 *
0!
#1095000
1!
#1100000
b100 &
b100 +
b100 [
b0 c
0j
0h
b10 a
b10 Y
b10010 ,
b10 .
b10 :
0B
0=
0A
1>
b0 8
b10 9
02
16
b1000 /
07
00
01
14
b1100 -
b1101100 #
b1101100 *
0!
#1105000
1!
#1110000
b101 &
b101 +
b101 [
b1 c
1j
1h
b11 a
b11 Y
b10011 ,
b11 .
b11 :
1B
1@
b1 8
b1001 /
13
10
b1101 -
b1101101 #
b1101101 *
0!
#1115000
1!
#1120000
00
11
b1110 -
b1101110 #
b1101110 *
0!
#1125000
1!
#1130000
0j
0\
b10 c
1g
0h
0e
0]
b110 &
b110 +
b110 [
1`
b0 a
1^
b100 Y
0B
1<
b10100 ,
b100 .
b0 :
0?
0@
1=
b10 8
12
b1010 /
03
10
b1111 -
b1101111 #
b1101111 *
0!
#1135000
1!
#1140000
1(
1'
0`
1j
b11 &
b11 +
b11 [
b11 c
1g
1i
1f
0^
b11 b
0_
b0 Y
b11 Z
b0 .
0<
0Q
1X
0R
b11000 ,
b11 D
b11 P
1U
0=
0>
0V
1S
b0 8
b0 9
b10 N
02
b0 /
06
1H
b110 E
0I
00
01
04
05
1F
b0 -
b111 C
b1110000 #
b1110000 *
0!
#1145000
1)
1!
#1150000
1`
1\
0g
0(
0'
1d
b100 &
b100 +
b100 [
b0 c
0j
1h
b1 a
b1 Y
b11001 ,
b1 .
b1 :
1B
1@
b1 8
b1 /
13
10
b1 -
b1110001 #
b1110001 *
0!
#1155000
0)
1!
#1160000
00
11
b10 -
b1110010 #
b1110010 *
0!
#1165000
1!
#1170000
0d
1j
b101 &
b101 +
b101 [
b1 c
0g
0h
1e
b10 a
b10 Y
0B
b11010 ,
b10 .
b10 :
1?
0@
1=
b10 8
12
b10 /
03
10
b11 -
b1110011 #
b1110011 *
0!
#1175000
1!
#1180000
1`
1d
0j
1\
b100 &
b100 +
b100 [
b0 c
0g
1h
0e
b1 a
b1 Y
0?
b11001 ,
b1 .
b1 :
1B
0=
1A
b0 8
b1 9
02
b100 /
17
00
01
14
b100 -
b1110100 #
b1110100 *
0!
#1185000
1!
